02-Timing/wokwi-logic.vcd
$version Generated by Wokwi.com $end
$date Tue, 22 Jul 2025 07:56:47 GMT $end
$timescale 1ns $end
$scope module logic $end
$var wire 1 ! D0 $end
$var wire 1 " D1 $end
$upscope $end
$enddefinitions $end
#0
0!
#0
0"
#721750
1"
#778062
1!
#2000692437
0!
#2096700812
0"
#4000692562
1!
#4192691250
1"
#6000692437
0!
#6288691125
0"
#8000692562
1!
#8298617937
1!
